%YAML 1.1
%TAG !u! tag:unity3d.com,2011:
--- !u!1045 &1
EditorBuildSettings:
  m_ObjectHideFlags: 0
  serializedVersion: 2
  m_Scenes:
  - enabled: 1
    path: Assets/Scenes/Menu.unity
    guid: fb071f81c9dddaf4fb675c306482b2bb
  - enabled: 1
    path: Assets/Scenes/Game.unity
    guid: 58bcac5e9b1024c76a1a7625102d3b63
  m_configObjects: {}
